{
  "lastGuess": false,
  "lastGuessCorrect": false,
  "lastDateGuessed": 1444107498389,
  "lastDateCorrect": 1444107467393,
  "lastDateIncorrect": 1444107498389,
  "correctGuesses": 2,
  "trueGuesses": 1,
  "falseGuesses": 2,
  "lastTimeElapsed": 1406,
  "longestTimeElapsed": 15836,
  "totalGuesses": 3,
  "incorrectGuesses": 1,
  "correctPercentage": 0.6666666667
}
